{
	"default" : {
		"db" : {
			"cluster": {
				"name": "MySQL",
				"idleTimeoutMillis": 300,
				"waitForConnections": false
			},
			"nodes" : {
				"NODE-0": {
					"host": "127.0.0.1",
					"user": "root",
					"password": "000000",
					"database": "stargame_bigtwo_structure"
				}
			}
		},
		"redis" : {
			"host": "127.0.0.1",
			"port": 6379,
			"timeout": 1
		},
		
		"sentinel" : {
			"host" : [
				{"ip" : "27.0.0.1", "port" : 26379}
			],
            "timeout" : 1,
            "authpass" : "",
            "master_name" : "mymaster"
		},"serverport": 8080
	}
}